{"id":"104013","rz_id":"104013","#text":"\u0406\u0433\u0440\u0430\u0448\u043a\u043e\u0432\u0430 \u0437\u0431\u0440\u043e\u044f"}
{"id":"105280","rz_id":"105280","#text":"\u041d\u0430\u0441\u0442\u043e\u043b\u044c\u043d\u044b\u0435 \u043b\u0430\u043c\u043f\u044b"}
{"id":"1124685","rz_id":"1124685","#text":"\u041a\u0432\u0430\u0434\u0440\u043e\u043a\u043e\u043f\u0442\u0435\u0440\u0438"}
{"id":"112986","rz_id":"112986","#text":"\u041c\u0443\u043b\u044c\u0442\u0438\u0432\u0430\u0440\u043a\u0438"}
{"id":"131143","rz_id":"131143","#text":"3D \u0456 VR \u043e\u043a\u0443\u043b\u044f\u0440\u0438"}
{"id":"156839","rz_id":"156839","#text":"\u0421\u0442\u0443\u0434\u0438\u0439\u043d\u044b\u0435 \u0432\u0441\u043f\u044b\u0448\u043a\u0438, \u043e\u0441\u0432\u0435\u0442\u0438\u0442\u0435\u043b\u0438 \u0438 \u0430\u043a\u0441\u0435\u0441\u0441\u0443\u0430\u0440\u044b"}
{"id":"185696","rz_id":"185696","#text":"\u0421\u0443\u0448\u0430\u0440\u043a\u0438 \u0434\u043b\u044f \u043e\u0434\u044f\u0433\u0443"}
{"id":"1940607","rz_id":"1940607","#text":"\u041a\u043e\u0441\u043c\u0435\u0442\u0438\u0447\u043d\u0456 \u043f\u0440\u0438\u043b\u0430\u0434\u0438"}
{"id":"2110432","rz_id":"2110432","#text":"\u0421\u0430\u0434\u043e\u0432\u0435 \u043f\u0440\u0438\u043b\u0430\u0434\u0434\u044f"}
{"id":"219954","rz_id":"219954","#text":"\u041c\u0430\u0440\u0438\u043d\u0430\u0442\u043e\u0440\u0438"}
{"id":"2798842","rz_id":"2798842","#text":"\u0417\u0430\u0441\u043e\u0431\u0438 \u0456\u043d\u0434\u0438\u0432\u0456\u0434\u0443\u0430\u043b\u044c\u043d\u043e\u0433\u043e \u0437\u0430\u0445\u0438\u0441\u0442\u0443"}
{"id":"3700571","rz_id":"3700571","#text":"\u0411\u0430\u0441\u0441\u0435\u0439\u043d\u044b"}
{"id":"387969","rz_id":"387969","#text":"\u0423\u043d\u0456\u0432\u0435\u0440\u0441\u0430\u043b\u044c\u043d\u0456 \u043c\u043e\u0431\u0456\u043b\u044c\u043d\u0456 \u0431\u0430\u0442\u0430\u0440\u0435\u0457"}
{"id":"4626579","rz_id":"4626579","#text":"\u0410\u043a\u0441\u0435\u0441\u0441\u0443\u0430\u0440\u044b \u0434\u043b\u044f \u043c\u0430\u043d\u0433\u0430\u043b\u043e\u0432, \u0431\u0430\u0440\u0431\u0435\u043a\u044e, \u0433\u0440\u0438\u043b\u0435\u0439"}
{"id":"4626676","rz_id":"4626676","#text":"\u041d\u0430\u0431\u043e\u0440\u0438 \u043d\u043e\u0436\u0456\u0432"}
{"id":"4626754","rz_id":"4626754","#text":"\u0421\u043a\u043e\u0432\u043e\u0440\u043e\u0434\u0438"}
{"id":"4627136","rz_id":"4627136","#text":"\u041a\u0443\u0445\u043e\u043d\u043d\u0456 \u043d\u0430\u0431\u043e\u0440\u0438"}
{"id":"4627554","rz_id":"4627554","#text":"\u0424\u0456\u0442\u043d\u0435\u0441-\u0431\u0440\u0430\u0441\u043b\u0435\u0442\u0438"}
{"id":"4632117","rz_id":"4632117","#text":"\u041c\u0430\u043b\u044e\u0432\u0430\u043d\u043d\u044f"}
{"id":"4650808","rz_id":"4650808","#text":"\u0422\u0440\u0438\u043c\u0430\u0447\u0456 \u0434\u043b\u044f \u0432\u0430\u043d\u043d\u043e\u0457 \u043a\u0456\u043c\u043d\u0430\u0442\u0438"}
{"id":"4655126","rz_id":"4655126","#text":"\u0424\u043e\u0440\u043c\u0438"}
{"id":"50447500","parentId":"50447498","#text":"\u0422\u0435\u0440\u043a\u0438, \u043e\u0432\u043e\u0449\u0435\u0440\u0435\u0437\u043a\u0438"}
{"id":"50447642","parentId":"50447639","#text":"\u0414\u0435\u0442\u0441\u043a\u0438\u0435 \u043a\u043e\u043d\u0441\u0442\u0440\u0443\u043a\u0442\u043e\u0440\u044b"}
{"id":"50801823","parentId":"50801822","#text":" \u0422\u0435\u0440\u043c\u043e\u043c\u0435\u0442\u0440\u044b"}
{"id":"50802249","parentId":"50802248","#text":"\u041a\u0443\u0445\u043e\u043d\u043d\u044b\u0435 \u043f\u0440\u0438\u043d\u0430\u0434\u043b\u0435\u0436\u043d\u043e\u0441\u0442\u0438 \u0434\u043b\u044f \u0441\u043f\u0435\u0446\u0438\u0439 \u0438 \u0441\u043e\u0443\u0441\u043e\u0432"}
{"id":"50827077","parentId":"50827073","#text":"\u0417\u043e\u043d\u0442\u044b"}
{"id":"50842791","parentId":"50353453","#text":"\u0418\u043d\u0441\u0442\u0440\u0443\u043c\u0435\u043d\u0442\u044b \u0434\u043b\u044f \u0433\u0440\u0443\u043c\u0438\u043d\u0433\u0430"}
{"id":"50842841","parentId":"50353453","#text":"\u0410\u043c\u0443\u043d\u0438\u0446\u0438\u044f, \u0430\u043a\u0441\u0435\u0441\u0441\u0443\u0430\u0440\u044b \u0438 \u043e\u0434\u0435\u0436\u0434\u0430 \u0434\u043b\u044f \u0436\u0438\u0432\u043e\u0442\u043d\u044b\u0445"}
{"id":"50844875","parentId":"50353453","#text":"\u041f\u043e\u0441\u0443\u0434\u0430 \u0434\u043b\u044f \u0436\u0438\u0432\u043e\u0442\u043d\u044b\u0445"}
{"id":"50845422","parentId":"50845421","#text":"3D-\u0440\u0443\u0447\u043a\u0438"}
{"id":"50845492","parentId":"50845421","#text":"3D \u043f\u043b\u0430\u0441\u0442\u0438\u043a"}
{"id":"51108894","parentId":"51108851","#text":"\u041f\u0440\u043e\u0435\u043a\u0442\u043e\u0440\u044b"}
{"id":"51115493","parentId":"51113366","#text":"\u0423\u0442\u044e\u0433\u0438 \u0438 \u0433\u043b\u0430\u0434\u0438\u043b\u044c\u043d\u044b\u0435 \u0441\u0438\u0441\u0442\u0435\u043c\u044b"}
{"id":"51115748","parentId":"50371419","#text":"\u041f\u043b\u0435\u0434\u044b"}
{"id":"51153496","parentId":"51153489","#text":"\u0418\u0433\u0440\u043e\u0432\u044b\u0435 \u043d\u0430\u0431\u043e\u0440\u044b"}
{"id":"51205638","parentId":"51203642","#text":"\u0428\u0432\u0430\u0431\u0440\u044b"}
{"id":"51206719","parentId":"50802194","#text":"\u041a\u043e\u0441\u043c\u0435\u0442\u0438\u0447\u0435\u0441\u043a\u0438\u0435 \u043f\u0440\u0438\u0431\u043e\u0440\u044b"}
{"id":"51208133","parentId":"50802194","#text":"\u041c\u0430\u0441\u0441\u0430\u0436\u0435\u0440\u044b"}
{"id":"51209849","parentId":"51209845","#text":"\u041a\u043e\u0440\u0440\u0435\u043a\u0442\u0438\u0440\u0443\u044e\u0449\u0435\u0435 \u0431\u0435\u043b\u044c\u0435"}
{"id":"51213422","parentId":"51213382","#text":"\u041f\u043e\u044f\u0441\u0430 \u0438 \u043f\u0435\u0440\u0447\u0430\u0442\u043a\u0438 \u0434\u043b\u044f \u0444\u0438\u0442\u043d\u0435\u0441\u0430"}
{"id":"51214262","parentId":"50845420","#text":"\u0420\u0430\u0437\u043b\u0438\u0447\u043d\u044b\u0435 \u043d\u0430\u0431\u043e\u0440\u044b \u0434\u043b\u044f \u0434\u0435\u0442\u0441\u043a\u043e\u0433\u043e \u0442\u0432\u043e\u0440\u0447\u0435\u0441\u0442\u0432\u0430"}
{"id":"51215189","parentId":"50447498","#text":"\u041f\u043e\u0432\u0430\u0440\u0441\u043a\u0438\u0435 \u043b\u043e\u043f\u0430\u0442\u043a\u0438, \u043b\u043e\u0436\u043a\u0438, \u0432\u0438\u043b\u043a\u0438"}
{"id":"51244067","parentId":"50842297","#text":"\u0421\u043a\u043b\u0430\u0434\u043d\u0430\u044f \u043c\u0435\u0431\u0435\u043b\u044c"}
{"id":"51291293","parentId":"50447498","#text":"\u041a\u043e\u043d\u0434\u0438\u0442\u0435\u0440\u0441\u043a\u0438\u0435 \u043f\u0440\u0438\u043d\u0430\u0434\u043b\u0435\u0436\u043d\u043e\u0441\u0442\u0438"}
{"id":"51293597","parentId":"51292949","#text":"\u0410\u0432\u0442\u043e\u043f\u0440\u0438\u043d\u0430\u0434\u043b\u0435\u0436\u043d\u043e\u0441\u0442\u0438"}
{"id":"51294540","parentId":"50842297","#text":"\u0422\u0435\u0440\u043c\u043e\u043f\u0440\u043e\u0434\u0443\u043a\u0446\u0438\u044f"}
{"id":"51347667","parentId":"51347662","#text":" \u0420\u0443\u0447\u043d\u043e\u0439 \u0441\u0430\u0434\u043e\u0432\u044b\u0439 \u0438\u043d\u0441\u0442\u0440\u0443\u043c\u0435\u043d\u0442"}
{"id":"51451187","parentId":"50447498","#text":"\u0421\u0443\u0448\u043a\u0438 \u0438 \u043e\u0440\u0433\u0430\u043d\u0430\u0439\u0437\u0435\u0440\u044b \u0434\u043b\u044f \u043f\u043e\u0441\u0443\u0434\u044b"}
{"id":"51451574","parentId":"50447498","#text":"\u0414\u0440\u0443\u0433\u043e\u0439 \u043a\u0443\u0445\u043e\u043d\u043d\u044b\u0439 \u0438\u043d\u0432\u0435\u043d\u0442\u0430\u0440\u044c"}
{"id":"51562512","parentId":"51562511","#text":"\u0422\u043e\u0447\u0438\u043b\u043a\u0438 \u0434\u043b\u044f \u043d\u043e\u0436\u0435\u0439"}
{"id":"51592581","parentId":"50845421","#text":"3D-\u0440\u0438\u0441\u043e\u0432\u0430\u043d\u0438\u0435"}
{"id":"51592742","parentId":"51592736","#text":"\u041d\u043e\u0447\u043d\u0438\u043a\u0438"}
{"id":"51613337","parentId":"50447639","#text":"\u0418\u0433\u0440\u0443\u0448\u043a\u0438 \u0434\u043b\u044f \u043f\u043b\u044f\u0436\u0430, \u043f\u0435\u0441\u043e\u0447\u043d\u0438\u0446\u044b \u0438 \u0432\u0430\u043d\u043d\u043e\u0439"}
{"id":"51615743","parentId":"50845418","#text":"\u0418\u043d\u0442\u0435\u0440\u0430\u043a\u0442\u0438\u0432\u043d\u044b\u0435 \u0438\u0433\u0440\u0443\u0448\u043a\u0438"}
{"id":"51615865","parentId":"51452158","#text":"\u0421\u043a\u043e\u0432\u043e\u0440\u043e\u0434\u044b"}
{"id":"51648497","parentId":"51213992","#text":"\u041d\u0430\u0431\u043e\u0440\u044b \u043d\u043e\u0436\u0435\u0439"}
{"id":"51704671","parentId":"51347659","#text":"\u0423\u043b\u0438\u0447\u043d\u043e\u0435 \u043e\u0441\u0432\u0435\u0449\u0435\u043d\u0438\u0435"}
{"id":"51708182","parentId":"51708178","#text":"\u0422\u0435\u043f\u043b\u043e\u0432\u0435\u043d\u0442\u0438\u043b\u044f\u0442\u043e\u0440\u044b"}
{"id":"51741778","parentId":"50447498","#text":"\u0418\u0437\u043c\u0435\u043b\u044c\u0447\u0438\u0442\u0435\u043b\u0438, \u043f\u0440\u0435\u0441\u0441\u044b"}
{"id":"51800845","parentId":"50353217","#text":"\u041a\u043e\u0432\u0440\u043e\u0432\u044b\u0435 \u0438\u0437\u0434\u0435\u043b\u0438\u044f"}
{"id":"51801315","parentId":"50445620","#text":"\u0412\u0435\u0441\u044b \u043a\u0443\u0445\u043e\u043d\u043d\u044b\u0435"}
{"id":"51836845","parentId":"50445620","#text":"\u0411\u043b\u0435\u043d\u0434\u0435\u0440\u044b"}
{"id":"51838705","parentId":"50445620","#text":"\u041a\u043e\u0444\u0435\u0432\u0430\u0440\u043a\u0438"}
{"id":"51907930","#text":"\u0422\u043e\u0432\u0430\u0440\u044b \u0434\u043b\u044f \u0430\u0432\u0442\u043e"}
{"id":"51907935","#text":"\u0421\u043b\u0443\u0445\u043e\u0432\u044b\u0435 \u0430\u043f\u043f\u0430\u0440\u0430\u0442\u044b"}
{"id":"51956211","parentId":"51159758","#text":"\u0410\u0432\u0442\u043e\u043c\u043e\u0431\u0438\u043b\u044c\u043d\u044b\u0435 \u0442\u0440\u0435\u043a\u0438"}
{"id":"51961805","parentId":"51961800","#text":"\u0418\u0433\u0440\u0443\u0448\u043a\u0438 \u0434\u043b\u044f \u043c\u0430\u043b\u044b\u0448\u0435\u0439"}
{"id":"51988556","parentId":"51988534","#text":"\u0420\u0430\u0434\u0438\u043e\u0443\u043f\u0440\u0430\u0432\u043b\u044f\u0435\u043c\u044b\u0435 \u0438\u0433\u0440\u0443\u0448\u043a\u0438"}
{"id":"52049111","parentId":"51103713","#text":"\u0422\u0412-\u0430\u043d\u0442\u0435\u043d\u044b \u0438 \u0440\u0435\u0441\u0438\u0432\u0435\u0440\u044b"}
{"id":"52066247","parentId":"50268739","#text":"\u0410\u043a\u0441\u0435\u0441\u0441\u0443\u0430\u0440\u044b"}
{"id":"52071450","parentId":"50371419","#text":"\u041f\u043e\u0434\u0443\u0448\u043a\u0438"}
{"id":"52126122","parentId":"52126026","#text":"\u0423\u0445\u043e\u0434 \u0437\u0430 \u043f\u043e\u043b\u043e\u0441\u0442\u044c\u044e \u0440\u0442\u0430"}
{"id":"52128393","parentId":"50445617","#text":"\u041f\u0440\u043e\u0447\u0430\u044f \u043c\u0435\u043b\u043a\u0430\u044f \u0442\u0435\u0445\u043d\u0438\u043a\u0430"}
{"id":"52134741","parentId":"52134739","#text":" \u041a\u043e\u0448\u0435\u043b\u044c\u043a\u0438"}
{"id":"52134895","parentId":"52134888","#text":"\u0410\u043a\u0441\u0435\u0441\u0441\u0443\u0430\u0440\u044b \u0434\u043b\u044f \u043a\u043e\u043b\u044f\u0441\u043e\u043a \u0438 \u0430\u0432\u0442\u043e\u043a\u0440\u0435\u0441\u0435\u043b"}
{"id":"52147653","parentId":"52147651","#text":"\u041c\u043e\u043d\u0442\u0430\u0436\u043d\u044b\u0435 \u044d\u043b\u0435\u043c\u0435\u043d\u0442\u044b"}
{"id":"52149329","parentId":"50447498","#text":"\u0410\u043a\u0441\u0435\u0441\u0441\u0443\u0430\u0440\u044b \u0434\u043b\u044f \u043c\u044b\u0442\u044c\u044f \u043f\u043e\u0441\u0443\u0434\u044b"}
{"id":"52179866","parentId":"52179678","#text":"\u0421\u0440\u0435\u0434\u0441\u0442\u0432\u0430 \u0434\u043b\u044f \u043a\u0443\u0445\u043d\u0438"}
{"id":"52261207","parentId":"51562511","#text":"\u041d\u043e\u0436\u0438"}
{"id":"52261343","parentId":"51706810","#text":"\u0420\u044e\u043a\u0437\u0430\u043a\u0438"}
{"id":"52338214","parentId":"50353217","#text":"\u041d\u0430\u0434\u0443\u0432\u043d\u0430\u044f \u043c\u0435\u0431\u0435\u043b\u044c \u0438 \u0430\u043a\u0441\u0435\u0441\u0441\u0443\u0430\u0440\u044b"}
{"id":"52355610","parentId":"52355545","#text":"\u0410\u043a\u0441\u0435\u0441\u0441\u0443\u0430\u0440\u044b \u0434\u043b\u044f \u043e\u0431\u0443\u0432\u0438"}
{"id":"52363074","parentId":"51347659","#text":"\u0421\u0438\u0441\u0442\u0435\u043c\u044b \u043f\u043e\u043b\u0438\u0432\u0430"}
{"id":"52364516","parentId":"52364510","#text":"\u0410\u043d\u0442\u0438\u043c\u043e\u0441\u043a\u0438\u0442\u043d\u044b\u0435 \u0441\u0435\u0442\u043a\u0438"}
{"id":"52399755","parentId":"52399740","#text":"\u042d\u043b\u0435\u043a\u0442\u0440\u0438\u0447\u0435\u0441\u043a\u0438\u0435 \u043f\u0440\u043e\u0442\u043e\u0447\u043d\u044b\u0435 \u0432\u043e\u0434\u043e\u043d\u0430\u0433\u0440\u0435\u0432\u0430\u0442\u0435\u043b\u0438"}
{"id":"52407056","parentId":"52406798","#text":"\u0412\u0435\u0441\u043e\u0438\u0437\u043c\u0435\u0440\u0438\u0442\u0435\u043b\u044c\u043d\u043e\u0435 \u043e\u0431\u043e\u0440\u0443\u0434\u043e\u0432\u0430\u043d\u0438\u0435"}
{"id":"52410553","parentId":"52147642","#text":"\u0418\u0437\u043c\u0435\u0440\u0438\u0442\u0435\u043b\u044c\u043d\u043e-\u0440\u0430\u0437\u043c\u0435\u0442\u043e\u0447\u043d\u044b\u0439 \u0438\u043d\u0441\u0442\u0440\u0443\u043c\u0435\u043d\u0442"}
{"id":"52447412","parentId":"52447410","#text":"\u0428\u0432\u0435\u0439\u043d\u0430\u044f \u0442\u0435\u0445\u043d\u0438\u043a\u0430 \u0438 \u0430\u043a\u0441\u0435\u0441\u0441\u0443\u0430\u0440\u044b"}
{"id":"52559141","parentId":"50802194","#text":"\u041f\u0440\u0438\u0431\u043e\u0440\u044b \u0434\u043b\u044f \u0443\u043a\u043b\u0430\u0434\u043a\u0438 \u0432\u043e\u043b\u043e\u0441"}
{"id":"52634427","parentId":"52634418","#text":"\u0414\u043e\u0437\u0430\u0442\u043e\u0440\u044b \u0434\u043b\u044f \u043c\u044b\u043b\u0430"}
{"id":"52644744","parentId":"52557531","#text":"\u0428\u0432\u0435\u0434\u0441\u043a\u0438\u0435 \u0441\u0442\u0435\u043d\u043a\u0438 \u0438 \u0442\u0443\u0440\u043d\u0438\u043a\u0438"}
{"id":"52770198","parentId":"52770192","#text":"\u0412\u0438\u0434\u0435\u043e\u0434\u043e\u043c\u043e\u0444\u043e\u043d\u044b"}
{"id":"52807479","parentId":"52807473","#text":"\u0421\u0447\u0435\u0442\u0447\u0438\u043a\u0438 \u0431\u0430\u043d\u043a\u043d\u043e\u0442 \u0438 \u0434\u0435\u0442\u0435\u043a\u0442\u043e\u0440\u044b \u0432\u0430\u043b\u044e\u0442"}
{"id":"53232780","parentId":"50801822","#text":"\u041f\u0440\u0438\u043d\u0430\u0434\u043b\u0435\u0436\u043d\u043e\u0441\u0442\u0438 \u043f\u043e \u0443\u0445\u043e\u0434\u0443"}
{"id":"53334462","parentId":"50802194","#text":"\u0421\u043b\u0443\u0445\u043e\u0432\u044b\u0435 \u0430\u043f\u043f\u0430\u0440\u0430\u0442\u044b"}
{"id":"53412480","parentId":"53412479","#text":" \u041f\u043b\u0430\u0441\u0442\u0438\u043b\u0438\u043d "}
{"id":"53496526","parentId":"50445620","#text":"\u042f\u0439\u0446\u0435\u0432\u0430\u0440\u043a\u0438"}
{"id":"53718243","parentId":"52634418","#text":"\u0414\u0435\u0440\u0436\u0430\u0442\u0435\u043b\u0438 \u0434\u043b\u044f \u0432\u0430\u043d\u043d\u043e\u0439 \u043a\u043e\u043c\u043d\u0430\u0442\u044b"}
{"id":"53762137","parentId":"53762129","#text":"\u0424\u0440\u0435\u0437\u0435\u0440\u044b \u0434\u043b\u044f \u043c\u0430\u043d\u0438\u043a\u044e\u0440\u0430 \u0438 \u043f\u0435\u0434\u0438\u043a\u044e\u0440\u0430"}
{"id":"53766079","parentId":"53766070","#text":"\u0410\u043a\u0443\u0441\u0442\u0438\u0447\u0435\u0441\u043a\u0438\u0435 \u0441\u0438\u0441\u0442\u0435\u043c\u044b"}
{"id":"54019124","parentId":"51245300","#text":"\u0421\u043c\u0430\u0440\u0442-\u0447\u0430\u0441\u044b"}
{"id":"54019218","parentId":"54019217","#text":"\u041d\u0430\u0441\u0442\u043e\u043b\u044c\u043d\u044b\u0435 \u0447\u0430\u0441\u044b"}
{"id":"54020647","parentId":"51159758","#text":"\u0420\u0430\u0434\u0438\u043e\u0443\u043f\u0440\u0430\u0432\u043b\u044f\u0435\u043c\u044b\u0435 \u0438\u0433\u0440\u0443\u0448\u043a\u0438"}
{"id":"54154870","parentId":"51347662","#text":"\u0421\u0430\u0434\u043e\u0432\u044b\u0435 \u043f\u0440\u0438\u043d\u0430\u0434\u043b\u0435\u0436\u043d\u043e\u0441\u0442\u0438"}
{"id":"56574433","parentId":"56572483","#text":"\u0413\u043e\u043b\u043e\u0432\u043e\u043b\u043e\u043c\u043a\u0438, \u0430\u043d\u0442\u0438\u0441\u0442\u0440\u0435\u0441\u0441\u044b"}
{"id":"56592767","parentId":"56572483","#text":"\u0411\u0440\u0435\u043b\u043e\u043a\u0438"}
{"id":"58864968","parentId":"51297613","#text":"\u0422\u0443\u0440\u0438\u0441\u0442\u0438\u0447\u0435\u0441\u043a\u0438\u0439 \u0438\u043d\u0441\u0442\u0440\u0443\u043c\u0435\u043d\u0442 \u0438 \u0430\u043a\u0441\u0435\u0441\u0441\u0443\u0430\u0440\u044b"}
{"id":"59301331","parentId":"59301299","#text":"\u0418\u0433\u0440\u043e\u0432\u044b\u0435 \u043c\u0430\u043d\u0438\u043f\u0443\u043b\u044f\u0442\u043e\u0440\u044b \u0438 \u0430\u043a\u0441\u0435\u0441\u0441\u0443\u0430\u0440\u044b \u0434\u043b\u044f \u043a\u043e\u043d\u0441\u043e\u043b\u0435\u0439"}
{"id":"59314399","parentId":"51108851","#text":"\u0410\u043a\u0441\u0435\u0441\u0441\u0443\u0430\u0440\u044b \u0434\u043b\u044f \u043f\u0440\u043e\u0435\u043a\u0442\u043e\u0440\u043e\u0432 "}
{"id":"59521014","parentId":"52477903","#text":"\u041a\u043b\u0435\u0435\u0432\u044b\u0435 \u043f\u0438\u0441\u0442\u043e\u043b\u0435\u0442\u044b \u0438 \u0430\u043a\u0441\u0435\u0441\u0441\u0443\u0430\u0440\u044b"}
{"id":"60072995","parentId":"51935871","#text":"\u041a\u0432\u0430\u0434\u0440\u043e\u043a\u043e\u043f\u0442\u0435\u0440\u044b"}
{"id":"60075943","parentId":"51103705","#text":"\u0412\u0438\u0434\u0435\u043e\u043a\u0430\u043c\u0435\u0440\u044b"}
{"id":"60092817","parentId":"51562511","#text":"\u041c\u0443\u043b\u044c\u0442\u0438\u0438\u043d\u0441\u0442\u0440\u0443\u043c\u0435\u043d\u0442\u044b"}
{"id":"60189514","parentId":"51103713","#text":"\u0410\u043a\u0441\u0435\u0441\u0441\u0443\u0430\u0440\u044b \u0434\u043b\u044f \u0422\u0412"}
{"id":"60336452","parentId":"51213382","#text":"\u0410\u043a\u0441\u0435\u0441\u0441\u0443\u0430\u0440\u044b \u0434\u043b\u044f \u0444\u0438\u0442\u043d\u0435\u0441\u0430"}
{"id":"60533337","parentId":"51245298","#text":"\u041d\u0430\u0443\u0448\u043d\u0438\u043a\u0438"}
{"id":"60535538","parentId":"50447638","#text":"\u0420\u043e\u0431\u043e\u0442\u043e\u0442\u0435\u0445\u043d\u0438\u043a\u0430"}
{"id":"60595203","parentId":"51106496","#text":"\u041c\u0438\u043a\u0440\u043e\u0444\u043e\u043d\u044b"}
{"id":"60882235","parentId":"51245300","#text":"\u0424\u0438\u0442\u043d\u0435\u0441-\u0431\u0440\u0430\u0441\u043b\u0435\u0442\u044b"}
{"id":"62614459","parentId":"50802194","#text":"\u041e\u0440\u0442\u043e\u043f\u0435\u0434\u0438\u0447\u0435\u0441\u043a\u0438\u0435 \u0441\u0442\u0435\u043b\u044c\u043a\u0438"}
{"id":"62825194","parentId":"52477903","#text":"\u0418\u0437\u043c\u0435\u0440\u0438\u0442\u0435\u043b\u044c\u043d\u0430\u044f \u0442\u0435\u0445\u043d\u0438\u043a\u0430"}
{"id":"63577312","parentId":"50802194","#text":"\u0422\u0440\u043e\u0441\u0442\u0438 \u0438 \u043a\u043e\u0441\u0442\u044b\u043b\u0438"}
{"id":"63859167","parentId":"50802248","#text":"\u041a\u043e\u0440\u0437\u0438\u043d\u043a\u0438"}
{"id":"65510459","parentId":"50445620","#text":"\u042d\u043b\u0435\u043a\u0442\u0440\u043e\u0447\u0430\u0439\u043d\u0438\u043a\u0438"}
{"id":"66360648","parentId":"66360645","#text":"\u0421\u0443\u0448\u0438\u043b\u043a\u0438 \u0434\u043b\u044f \u043f\u043e\u0441\u0443\u0434\u044b"}
{"id":"66877778","parentId":"52364510","#text":"\u041f\u0435\u0440\u0447\u0430\u0442\u043a\u0438 \u0445\u043e\u0437\u044f\u0439\u0441\u0442\u0432\u0435\u043d\u043d\u044b\u0435"}
{"id":"66887653","parentId":"52447410","#text":"\u0420\u043e\u0431\u043e\u0442\u044b-\u043f\u044b\u043b\u0435\u0441\u043e\u0441\u044b"}
{"id":"67445292","parentId":"50447498","#text":"\u041a\u043e\u043d\u0441\u0435\u0440\u0432\u043d\u044b\u0435 \u043d\u043e\u0436\u0438 \u0438 \u043a\u043b\u044e\u0447\u0438"}
{"id":"67446454","parentId":"53769103","#text":"\u0410\u0432\u0442\u043e\u043c\u043e\u0431\u0438\u043b\u044c\u043d\u044b\u0435 \u0432\u0435\u043d\u0442\u0438\u043b\u044f\u0442\u043e\u0440\u044b"}
{"id":"68446955","parentId":"51203642","#text":"\u0412\u0435\u043d\u0438\u043a\u0438 \u0438 \u0449\u0435\u0442\u043a\u0438"}
{"id":"68977494","#text":"\u041c\u0443\u0436\u0441\u043a\u0438\u0435 \u0444\u0443\u0442\u0431\u043e\u043b\u043a\u0438"}
{"id":"70415407","parentId":"51297056","#text":"\u041c\u0438\u043d\u0438-\u043a\u043e\u043d\u0434\u0438\u0446\u0438\u043e\u043d\u0435\u0440\u044b"}
{"id":"70602726","parentId":"50447498","#text":"\u041f\u043e\u0434\u0441\u0442\u0430\u0432\u043a\u0438, \u0434\u0435\u0440\u0436\u0430\u0442\u0435\u043b\u0438"}
{"id":"70603489","parentId":"60940705","#text":"\u0421\u0443\u0448\u043a\u0438 \u0434\u043b\u044f \u043e\u0434\u0435\u0436\u0434\u044b"}
{"id":"71605572","parentId":"51103705","#text":"\u0424\u043e\u0442\u043e\u0430\u043f\u043f\u0430\u0440\u0430\u0442\u044b"}
{"id":"71606689","parentId":"71606688","#text":"\u041c\u0430\u0441\u043a\u0438 \u0434\u043b\u044f \u0434\u0430\u0439\u0432\u0438\u043d\u0433\u0430"}
{"id":"71610853","parentId":"66360636","#text":"\u0421\u0442\u043e\u0439\u043a\u0438 \u0434\u043b\u044f \u043e\u0434\u0435\u0436\u0434\u044b"}
{"id":"71866499","parentId":"50447498","#text":"\u0424\u043e\u0440\u043c\u044b"}
{"id":"76005022","parentId":"53178666","#text":"\u0421\u0440\u0435\u0434\u0441\u0442\u0432\u0430 \u0438\u043d\u0434\u0438\u0432\u0438\u0434\u0443\u0430\u043b\u044c\u043d\u043e\u0439 \u0437\u0430\u0449\u0438\u0442\u044b"}
{"id":"76414521","parentId":"51947006","#text":"\u0414\u0435\u0442\u0441\u043a\u0438\u0435 \u044d\u043b\u0435\u043a\u0442\u0440\u043e- \u0438 \u0432\u0435\u043b\u043e\u043c\u043e\u0431\u0438\u043b\u0438"}
{"id":"76968588","parentId":"52147642","#text":"\u041a\u0440\u0430\u0441\u043a\u043e\u043f\u0443\u043b\u044c\u0442\u044b"}
{"id":"80003","rz_id":"80003","#text":"\u041c\u043e\u0431\u0456\u043b\u044c\u043d\u0456 \u0442\u0435\u043b\u0435\u0444\u043e\u043d\u0438"}
{"id":"80012","rz_id":"80012","#text":"\u041f\u0440\u043e\u0435\u043a\u0442\u043e\u0440\u0438"}
{"id":"80027","rz_id":"80027","#text":"\u041d\u0430\u0432\u0443\u0448\u043d\u0438\u043a\u0438"}
{"id":"80059060","parentId":"50845420","#text":"\u0420\u0438\u0441\u043e\u0432\u0430\u043d\u0438\u0435"}
{"id":"80150","rz_id":"80150","#text":"\u0424\u0440\u0438\u0442\u044e\u0440\u043d\u0438\u0446\u0456"}
{"id":"80151","rz_id":"80151","#text":"\u041f\u0430\u0440\u043e\u043e\u0447\u0438\u0441\u043d\u0438\u043a\u0438"}
{"id":"80155","rz_id":"80155","#text":"\u0411\u043b\u0435\u043d\u0434\u0435\u0440\u0438"}
{"id":"80164","rz_id":"80164","#text":"\u041a\u0430\u0432\u043e\u0432\u0430\u0440\u043a\u0438"}
{"id":"80173","rz_id":"80173","#text":"\u0406\u0433\u0440\u043e\u0432\u0456 \u043c\u0430\u043d\u0456\u043f\u0443\u043b\u044f\u0442\u043e\u0440\u0438 \u0439 \u0430\u043a\u0441\u0435\u0441\u0443\u0430\u0440\u0438 \u0434\u043e \u043a\u043e\u043d\u0441\u043e\u043b\u0435\u0439"}
{"id":"80176","rz_id":"80176","#text":"\u041c'\u044f\u0441\u043e\u0440\u0443\u0431\u043a\u0438"}
{"id":"80250","rz_id":"80250","#text":"\u0422\u0435\u043f\u043b\u043e\u0432\u0435\u043d\u0442\u0438\u043b\u044f\u0442\u043e\u0440\u0438"}
{"id":"81231","rz_id":"81231","#text":"\u041f\u0440\u0438\u043b\u0430\u0434\u0438 \u0434\u043b\u044f \u0443\u043a\u043b\u0430\u0434\u0430\u043d\u043d\u044f \u0432\u043e\u043b\u043e\u0441\u0441\u044f"}
{"id":"81667","rz_id":"81667","#text":"\u041d\u0430\u0441\u0442\u043e\u043b\u044c\u043d\u044b\u0435 \u043f\u043b\u0438\u0442\u044b"}
{"id":"82428384","parentId":"82426983","#text":"IPhone XS"}
{"id":"82626349","parentId":"76993147","#text":"\u0412\u043e\u0441\u043a\u043e\u043f\u043b\u0430\u0432\u044b"}
{"id":"82696","rz_id":"82696","#text":"\u041c\u0430\u043d\u0433\u0430\u043b\u0438, \u0431\u0430\u0440\u0431\u0435\u043a\u044e, \u0433\u0440\u0438\u043b\u044c"}
{"id":"83646","rz_id":"83646","#text":"\u041d\u0430\u0434\u0443\u0432\u043d\u0456 \u043c\u0435\u0431\u043b\u0456 \u0439 \u0430\u043a\u0441\u0435\u0441\u0443\u0430\u0440\u0438"}
{"id":"83648928","parentId":"51108851","#text":"\u0413\u0440\u0430\u0444\u0438\u0447\u0435\u0441\u043a\u0438\u0435 \u043f\u043b\u0430\u043d\u0448\u0435\u0442\u044b"}
{"id":"83685186","parentId":"51347662","#text":"\u0426\u0435\u043f\u043d\u044b\u0435 \u043f\u0438\u043b\u044b"}
{"id":"83687023","parentId":"50445620","#text":"\u041c\u044f\u0441\u043e\u0440\u0443\u0431\u043a\u0438"}
{"id":"83687668","parentId":"50445620","#text":"\u0422\u043e\u0441\u0442\u0435\u0440\u044b"}
{"id":"84772993","parentId":"52049080","#text":"\u0421\u0440\u0435\u0434\u0441\u0442\u0432\u0430 \u0434\u043b\u044f \u043a\u0443\u0437\u043e\u0432\u0430"}
{"id":"92024370","parentId":"92024309","#text":"\u0422\u043e\u0440\u0446\u0435\u0432\u044b\u0435 \u043a\u043b\u044e\u0447\u0438"}
{"id":"92024438","parentId":"92024434","#text":"\u0421\u0440\u0435\u0434\u0441\u0442\u0432\u0430 \u0434\u043b\u044f \u0441\u0442\u0435\u043a\u043e\u043b"}
{"id":"92024679","parentId":"92024618","#text":"\u0422\u0412-\u0430\u043d\u0442\u0435\u043d\u043d\u044b \u0438 \u0440\u0435\u0441\u0438\u0432\u0435\u0440\u044b"}
{"id":"92025057","parentId":"51213382","#text":"\u0421\u043f\u043e\u0440\u0442\u0438\u0432\u043d\u044b\u0435 \u043d\u0430\u0431\u043e\u0440\u044b \u0434\u043b\u044f \u0444\u0438\u0442\u043d\u0435\u0441\u0430"}
{"id":"92072355","parentId":"51213382","#text":"\u041c\u0430\u0441\u043a\u0438 \u0434\u043b\u044f \u0442\u0440\u0435\u043d\u0438\u0440\u043e\u0432\u043e\u043a"}
{"id":"92072367","parentId":"51213382","#text":"\u0420\u043e\u043b\u0438\u043a\u0438 \u0434\u043b\u044f \u043f\u0440\u0435\u0441\u0441\u0430"}
{"id":"92876462","parentId":"50447498","#text":"\u041a\u0443\u0445\u043e\u043d\u043d\u044b\u0435 \u043d\u0430\u0431\u043e\u0440\u044b"}
{"id":"93014008","parentId":"51213382","#text":"\u0421\u043f\u043e\u0440\u0442\u0438\u0432\u043d\u044b\u0435 \u043e\u0431\u0440\u0443\u0447\u0438"}
{"id":"93673839","#text":"3d \u0440\u0443\u0447\u043a\u0438"}
{"id":"93673862","#text":"\u0410\u043d\u0442\u0438\u043c\u043e\u0441\u043a\u0438\u0442\u043d\u044b\u0435 \u0441\u0435\u0442\u043a\u0438 \u0438 \u043a\u043e\u043c\u043f\u043b\u0435\u043a\u0442\u0443\u044e\u0449\u0438\u0435 \u043a \u043d\u0438\u043c"}
{"id":"93673864","#text":"\u0411\u0435\u043d\u0437\u043e\u043f\u0438\u043b\u044b \u0438 \u044d\u043b\u0435\u043a\u0442\u0440\u043e\u043f\u0438\u043b\u044b"}
{"id":"93673867","#text":"\u0411\u043b\u0435\u043d\u0434\u0435\u0440\u044b"}
{"id":"93673873","#text":"\u0411\u044b\u0442\u043e\u0432\u044b\u0435 \u0444\u043e\u0440\u043c\u044b \u0434\u043b\u044f \u043f\u0440\u0438\u0433\u043e\u0442\u043e\u0432\u043b\u0435\u043d\u0438\u044f \u043f\u043e\u043b\u0443\u0444\u0430\u0431\u0440\u0438\u043a\u0430\u0442\u043e\u0432"}
{"id":"93673874","#text":"\u0411\u044b\u0442\u043e\u0432\u044b\u0435 \u0448\u0432\u0435\u0439\u043d\u044b\u0435 \u043c\u0430\u0448\u0438\u043d\u044b"}
{"id":"93673883","#text":"\u0412\u0435\u0448\u0430\u043b\u043a\u0438 \u0434\u043b\u044f \u043e\u0434\u0435\u0436\u0434\u044b"}
{"id":"93673884","#text":"\u0412\u0438\u0434\u0435\u043e\u043a\u0430\u043c\u0435\u0440\u044b, \u044d\u043a\u0448\u043d-\u043a\u0430\u043c\u0435\u0440\u044b"}
{"id":"93673898","#text":"\u0414\u0435\u0442\u0441\u043a\u0438\u0435 \u044d\u043b\u0435\u043a\u0442\u0440\u043e\u043c\u043e\u0431\u0438\u043b\u0438, \u0431\u0435\u043d\u0437\u043e\u043c\u043e\u0431\u0438\u043b\u0438"}
{"id":"93673923","#text":"\u0418\u0433\u0440\u0443\u0448\u0435\u0447\u043d\u044b\u0435 \u043f\u0438\u0441\u0442\u043e\u043b\u0435\u0442\u044b, \u0430\u0440\u0431\u0430\u043b\u0435\u0442\u044b \u0438 \u0441\u0430\u0431\u043b\u0438"}
{"id":"93673925","#text":"\u0418\u0433\u0440\u0443\u0448\u043a\u0438 \u0434\u043b\u044f \u0438\u0433\u0440 \u0441 \u043f\u0435\u0441\u043a\u043e\u043c, \u0432\u043e\u0434\u043e\u0439 \u0438 \u0441\u043d\u0435\u0433\u043e\u043c"}
{"id":"93673930","#text":"\u0418\u043d\u0442\u0435\u0440\u0430\u043a\u0442\u0438\u0432\u043d\u044b\u0435 \u0434\u0435\u0442\u0441\u043a\u0438\u0435 \u0438\u0433\u0440\u0443\u0448\u043a\u0438"}
{"id":"93673935","#text":"\u041a\u0432\u0430\u0434\u0440\u043e\u043a\u043e\u043f\u0442\u0435\u0440\u044b"}
{"id":"93673950","#text":"\u041a\u043e\u043d\u0441\u0442\u0440\u0443\u043a\u0442\u043e\u0440\u044b"}
{"id":"93673957","#text":"\u041a\u043e\u0444\u0435\u0432\u0430\u0440\u043a\u0438, \u043a\u043e\u0444\u0435\u043c\u0430\u0448\u0438\u043d\u044b"}
{"id":"93673967","#text":"\u041a\u0443\u0445\u043e\u043d\u043d\u044b\u0435 \u043d\u043e\u0436\u0438 \u0438 \u043f\u043e\u0434\u0441\u0442\u0430\u0432\u043a\u0438"}
{"id":"93673984","#text":"\u041c\u043e\u0431\u0438\u043b\u044c\u043d\u044b\u0435 \u0442\u0435\u043b\u0435\u0444\u043e\u043d\u044b, \u0441\u043c\u0430\u0440\u0442\u0444\u043e\u043d\u044b"}
{"id":"93673992","#text":"\u041c\u044f\u0441\u043e\u0440\u0443\u0431\u043a\u0438 \u044d\u043b\u0435\u043a\u0442\u0440\u0438\u0447\u0435\u0441\u043a\u0438\u0435 \u0431\u044b\u0442\u043e\u0432\u044b\u0435"}
{"id":"93673995","#text":"\u041d\u0430\u0431\u043e\u0440\u044b \u043a\u0443\u0445\u043e\u043d\u043d\u044b\u0445 \u043f\u0440\u0438\u043d\u0430\u0434\u043b\u0435\u0436\u043d\u043e\u0441\u0442\u0435\u0439"}
{"id":"93673996","#text":"\u041d\u0430\u0431\u043e\u0440\u044b \u0441\u0442\u043e\u043b\u043e\u0432\u044b\u0445 \u043f\u0440\u0438\u0431\u043e\u0440\u043e\u0432"}
{"id":"93674001","#text":"\u041d\u0430\u0441\u0442\u043e\u043b\u044c\u043d\u044b\u0435 \u043b\u0430\u043c\u043f\u044b \u0438 \u043d\u043e\u0447\u043d\u0438\u043a\u0438"}
{"id":"93674003","#text":"\u041d\u0430\u0443\u0448\u043d\u0438\u043a\u0438 \u0438 \u0433\u0430\u0440\u043d\u0438\u0442\u0443\u0440\u044b"}
{"id":"93674030","#text":"\u041f\u043b\u0430\u043d\u0448\u0435\u0442\u044b \u0433\u0440\u0430\u0444\u0438\u0447\u0435\u0441\u043a\u0438\u0435"}
{"id":"93674040","#text":"\u041f\u043e\u0434\u0443\u0448\u043a\u0438"}
{"id":"93674046","#text":"\u041f\u0440\u0438\u0431\u043e\u0440\u044b \u0434\u043b\u044f \u0443\u043a\u043b\u0430\u0434\u043a\u0438 \u0432\u043e\u043b\u043e\u0441"}
{"id":"93674051","#text":"\u0420\u0430\u0434\u0438\u043e\u0443\u043f\u0440\u0430\u0432\u043b\u044f\u0435\u043c\u044b\u0435 \u0438\u0433\u0440\u0443\u0448\u043a\u0438"}
{"id":"93674106","#text":"\u0421\u0443\u0448\u043a\u0438 \u0434\u043b\u044f \u043f\u043e\u0441\u0443\u0434\u044b"}
{"id":"93674113","#text":"\u0422\u0435\u043f\u043b\u043e\u0432\u0435\u043d\u0442\u0438\u043b\u044f\u0442\u043e\u0440\u044b \u0431\u044b\u0442\u043e\u0432\u044b\u0435"}
{"id":"93674124","#text":"\u0422\u043e\u0441\u0442\u0435\u0440\u044b"}
{"id":"93674126","#text":"\u0422\u0440\u0435\u043d\u0430\u0436\u0435\u0440\u044b \u0434\u043b\u044f \u043f\u0440\u0435\u0441\u0441\u0430, \u0433\u0438\u043f\u0435\u0440\u044d\u043a\u0441\u0442\u0435\u043d\u0437\u0438\u0438"}
{"id":"93674156","#text":"\u0428\u0432\u0430\u0431\u0440\u044b \u0438 \u0437\u0430\u043f\u0430\u0441\u043d\u044b\u0435 \u043d\u0430\u0441\u0430\u0434\u043a\u0438"}
{"id":"93674165","#text":"\u042d\u043b\u0435\u043a\u0442\u0440\u043e\u0447\u0430\u0439\u043d\u0438\u043a\u0438 \u0438 \u0442\u0435\u0440\u043c\u043e\u043f\u043e\u0442\u044b \u0431\u044b\u0442\u043e\u0432\u044b\u0435"}
{"id":"93695055","#text":"\u041b\u0430\u0437\u0435\u0440\u043d\u044b\u0435 \u0434\u0430\u043b\u044c\u043d\u043e\u043c\u0435\u0440\u044b"}
{"id":"93695059","#text":"\u0421\u0442\u0435\u043b\u044c\u043a\u0438"}
{"id":"93713906","#text":"\u041c\u0430\u0441\u0441\u0430\u0436\u0435\u0440\u044b \u0434\u043b\u044f \u0448\u0435\u0438 \u0438 \u043f\u043b\u0435\u0447"}
{"id":"98280","rz_id":"98280","#text":"\u041d\u0430\u0441\u0442\u0456\u043b\u044c\u043d\u0456 \u0456\u0433\u0440\u0438"}
{"id":"50268739","parentId":"50268684","#text":"\u041a\u043e\u0441\u043c\u0435\u0442\u0438\u043a\u0430 \u0438 \u043f\u0430\u0440\u0444\u044e\u043c\u0435\u0440\u0438\u044f"}
{"id":"50353453","parentId":"50353217","#text":"\u0417\u043e\u043e\u0442\u043e\u0432\u0430\u0440\u044b"}
{"id":"50371419","parentId":"50353217","#text":"\u0414\u043e\u043c\u0430\u0448\u043d\u0438\u0439 \u0442\u0435\u043a\u0441\u0442\u0438\u043b\u044c"}
{"id":"50445620","parentId":"50445617","#text":"\u0422\u0435\u0445\u043d\u0438\u043a\u0430 \u0434\u043b\u044f \u043a\u0443\u0445\u043d\u0438"}
{"id":"50447498","parentId":"50447427","#text":"\u041a\u0443\u0445\u043e\u043d\u043d\u044b\u0435 \u043f\u0440\u0438\u043d\u0430\u0434\u043b\u0435\u0436\u043d\u043e\u0441\u0442\u0438"}
{"id":"50801822","parentId":"50801821","#text":"\u0415\u0436\u0435\u0434\u043d\u0435\u0432\u043d\u044b\u0439 \u0443\u0445\u043e\u0434 \u0438 \u0437\u0434\u043e\u0440\u043e\u0432\u044c\u0435"}
{"id":"50802248","parentId":"50447427","#text":"\u0425\u0440\u0430\u043d\u0435\u043d\u0438\u0435 \u043f\u0440\u043e\u0434\u0443\u043a\u0442\u043e\u0432"}
{"id":"50842297","parentId":"50842296","#text":"\u0422\u0443\u0440\u0438\u0437\u043c \u0438 \u043a\u0435\u043c\u043f\u0438\u043d\u0433"}
{"id":"50845421","parentId":"50845420","#text":"\u0422\u0432\u043e\u0440\u0447\u0435\u0441\u0442\u0432\u043e \u0432 3D"}
{"id":"51103713","parentId":"51103705","#text":"\u0422\u0435\u043b\u0435\u0432\u0438\u0437\u043e\u0440\u044b \u0438 \u0430\u043a\u0441\u0435\u0441\u0441\u0443\u0430\u0440\u044b"}
{"id":"51106496","parentId":"51106253","#text":"\u0417\u0432\u0443\u043a\u043e\u0437\u0430\u043f\u0438\u0441\u044c"}
{"id":"51113366","parentId":"50445617","#text":"\u0410\u043a\u0441\u0435\u0441\u0441\u0443\u0430\u0440\u044b \u043f\u043e \u0443\u0445\u043e\u0434\u0443 \u0437\u0430 \u0434\u043e\u043c\u043e\u043c \u0438 \u043e\u0434\u0435\u0436\u0434\u043e\u0439"}
{"id":"51153489","parentId":"50447639","#text":"\u041c\u044f\u0433\u043a\u0438\u0435 \u0438\u0433\u0440\u0443\u0448\u043a\u0438, \u0444\u0438\u0433\u0443\u0440\u043a\u0438, \u043a\u0443\u043a\u043b\u044b"}
{"id":"51159758","parentId":"50447639","#text":"\u041c\u0430\u0448\u0438\u043d\u043a\u0438, \u043c\u043e\u0434\u0435\u043b\u0438 \u0442\u0435\u0445\u043d\u0438\u043a\u0438 \u0438 \u043e\u0440\u0443\u0436\u0438\u0435"}
{"id":"51203642","parentId":"51108521","#text":"\u0418\u043d\u0441\u0442\u0440\u0443\u043c\u0435\u043d\u0442\u044b \u0434\u043b\u044f \u0443\u0431\u043e\u0440\u043a\u0438"}
{"id":"51209845","parentId":"51209838","#text":"\u0416\u0435\u043d\u0441\u043a\u043e\u0435 \u043d\u0438\u0436\u043d\u0435\u0435 \u0431\u0435\u043b\u044c\u0435, \u043a\u043e\u043b\u0433\u043e\u0442\u043a\u0438 \u0438 \u043e\u0434\u0435\u0436\u0434\u0430 \u0434\u043b\u044f \u0434\u043e\u043c\u0430"}
{"id":"51213382","parentId":"51213343","#text":"\u0424\u0438\u0442\u043d\u0435\u0441 \u0438 \u0430\u044d\u0440\u043e\u0431\u0438\u043a\u0430"}
{"id":"51213992","parentId":"50447427","#text":"\u041d\u043e\u0436\u0438, \u043d\u043e\u0436\u043d\u0438\u0446\u044b, \u0442\u043e\u043f\u043e\u0440\u0438\u043a\u0438"}
{"id":"51245300","parentId":"51245298","#text":"\u0410\u043a\u0441\u0435\u0441\u0441\u0443\u0430\u0440\u044b \u0434\u043b\u044f \u043c\u043e\u0431\u0438\u043b\u044c\u043d\u044b\u0445 \u0442\u0435\u043b\u0435\u0444\u043e\u043d\u043e\u0432 \u0438 \u0441\u043c\u0430\u0440\u0442\u0444\u043e\u043d\u043e\u0432 "}
{"id":"51292949","parentId":"50801024","#text":"\u0410\u0432\u0442\u043e\u0430\u043a\u0441\u0435\u0441\u0441\u0443\u0430\u0440\u044b"}
{"id":"51297613","parentId":"50842296","#text":"\u0410\u043a\u0441\u0435\u0441\u0441\u0443\u0430\u0440\u044b \u0434\u043b\u044f \u0430\u043a\u0442\u0438\u0432\u043d\u043e\u0433\u043e \u043e\u0442\u0434\u044b\u0445\u0430 \u0438 \u0442\u0443\u0440\u0438\u0437\u043c\u0430"}
{"id":"51347662","parentId":"51347659","#text":"\u0421\u0430\u0434\u043e\u0432\u044b\u0439 \u0438\u043d\u0432\u0435\u043d\u0442\u0430\u0440\u044c"}
{"id":"51452158","parentId":"50447427","#text":"\u041f\u0440\u0438\u0433\u043e\u0442\u043e\u0432\u043b\u0435\u043d\u0438\u0435 \u043f\u0438\u0449\u0438"}
{"id":"51562511","parentId":"50842296","#text":"\u041d\u043e\u0436\u0438 \u0438 \u043c\u0443\u043b\u044c\u0442\u0438\u0438\u043d\u0441\u0442\u0440\u0443\u043c\u0435\u043d\u0442\u044b"}
{"id":"51592736","parentId":"50800137","#text":"\u041e\u0441\u0432\u0435\u0449\u0435\u043d\u0438\u0435 \u0434\u043b\u044f \u0434\u0435\u0442\u0441\u043a\u043e\u0439 \u043a\u043e\u043c\u043d\u0430\u0442\u044b"}
{"id":"51706810","parentId":"50827073","#text":"\u0421\u0443\u043c\u043a\u0438 \u0438 \u0440\u044e\u043a\u0437\u0430\u043a\u0438"}
{"id":"51708178","parentId":"51297056","#text":"\u041e\u0431\u043e\u0433\u0440\u0435\u0432\u0430\u0442\u0435\u043b\u0438"}
{"id":"51935871","parentId":"50842296","#text":"\u0420\u0430\u0434\u0438\u043e\u0443\u043f\u0440\u0430\u0432\u043b\u044f\u0435\u043c\u044b\u0435 \u043c\u043e\u0434\u0435\u043b\u0438"}
{"id":"51947006","parentId":"51946999","#text":"\u0421\u0440\u0435\u0434\u0441\u0442\u0432\u0430 \u043f\u0435\u0440\u0435\u0434\u0432\u0438\u0436\u0435\u043d\u0438\u044f"}
{"id":"51961800","parentId":"50801821","#text":"\u0418\u0433\u0440\u0443\u0448\u043a\u0438 \u0434\u043b\u044f \u043c\u0430\u043b\u044b\u0448\u0435\u0439, \u0440\u0430\u0437\u0432\u0438\u0442\u0438\u0435, \u0440\u0430\u0437\u0432\u043b\u0435\u0447\u0435\u043d\u0438\u044f "}
{"id":"51988534","parentId":"50447638","#text":"\u041c\u0430\u0448\u0438\u043d\u043a\u0438, \u043c\u043e\u0434\u0435\u043b\u0438 \u0442\u0435\u0445\u043d\u0438\u043a\u0438 \u0438 \u043e\u0440\u0443\u0436\u0438\u0435"}
{"id":"52049080","parentId":"50801024","#text":"\u0410\u0432\u0442\u043e\u043a\u043e\u0441\u043c\u0435\u0442\u0438\u043a\u0430"}
{"id":"52126026","parentId":"50268684","#text":"\u041a\u043e\u0441\u043c\u0435\u0442\u0438\u043a\u0430 \u043f\u043e \u0443\u0445\u043e\u0434\u0443"}
{"id":"52134739","parentId":"50827073","#text":"\u041a\u043e\u0448\u0435\u043b\u044c\u043a\u0438 \u0438 \u043f\u043e\u0440\u0442\u043c\u043e\u043d\u0435"}
{"id":"52134888","parentId":"50447638","#text":"\u041a\u043e\u043b\u044f\u0441\u043a\u0438 \u0438 \u0430\u0432\u0442\u043e\u043a\u0440\u0435\u0441\u043b\u0430"}
{"id":"52147651","parentId":"52147642","#text":"\u042d\u043b\u0435\u043a\u0442\u0440\u043e\u043c\u043e\u043d\u0442\u0430\u0436\u043d\u043e\u0435 \u043e\u0431\u043e\u0440\u0443\u0434\u043e\u0432\u0430\u043d\u0438\u0435"}
{"id":"52179678","parentId":"52179668","#text":"\u0421\u0440\u0435\u0434\u0441\u0442\u0432\u0430 \u0434\u043b\u044f \u0443\u0431\u043e\u0440\u043a\u0438"}
{"id":"52355545","parentId":"50827064","#text":"\u041e\u0431\u0443\u0432\u044c"}
{"id":"52364510","parentId":"51108521","#text":"\u0425\u043e\u0437\u044f\u0439\u0441\u0442\u0432\u0435\u043d\u043d\u044b\u0435 \u0442\u043e\u0432\u0430\u0440\u044b"}
{"id":"52399740","parentId":"51297056","#text":"\u0412\u043e\u0434\u043e\u043d\u0430\u0433\u0440\u0435\u0432\u0430\u0442\u0435\u043b\u0438"}
{"id":"52406798","parentId":"52406774","#text":"\u0422\u043e\u0440\u0433\u043e\u0432\u043e\u0435 \u043e\u0431\u043e\u0440\u0443\u0434\u043e\u0432\u0430\u043d\u0438\u0435"}
{"id":"52447410","parentId":"50445617","#text":"\u0422\u043e\u0432\u0430\u0440\u044b \u043f\u043e \u0443\u0445\u043e\u0434\u0443 \u0437\u0430 \u0434\u043e\u043c\u043e\u043c \u0438 \u043e\u0434\u0435\u0436\u0434\u043e\u0439"}
{"id":"52477903","parentId":"52147642","#text":"\u0418\u043d\u0441\u0442\u0440\u0443\u043c\u0435\u043d\u0442\u044b"}
{"id":"52557531","parentId":"51213343","#text":"\u0422\u0440\u0435\u043d\u0430\u0436\u0435\u0440\u044b \u0438 \u0441\u043f\u043e\u0440\u0442\u0438\u0432\u043d\u043e\u0435 \u043e\u0431\u043e\u0440\u0443\u0434\u043e\u0432\u0430\u043d\u0438\u0435"}
{"id":"52634418","parentId":"52506908","#text":"\u0410\u043a\u0441\u0435\u0441\u0441\u0443\u0430\u0440\u044b \u0434\u043b\u044f \u0432\u0430\u043d\u043d\u043e\u0439"}
{"id":"52770192","parentId":"52770184","#text":"\u0414\u043e\u043c\u043e\u0444\u043e\u043d\u044b"}
{"id":"52807473","parentId":"51108851","#text":"\u041e\u0444\u0438\u0441\u043d\u0430\u044f \u0442\u0435\u0445\u043d\u0438\u043a\u0430"}
{"id":"53178666","parentId":"52147642","#text":"\u0420\u0430\u0441\u0445\u043e\u0434\u043d\u044b\u0439 \u043c\u0430\u0442\u0435\u0440\u0438\u0430\u043b \u043a \u0438\u043d\u0441\u0442\u0440\u0443\u043c\u0435\u043d\u0442\u0443 \u0438 \u043f\u0440\u0438\u043d\u0430\u0434\u043b\u0435\u0436\u043d\u043e\u0441\u0442\u0438 "}
{"id":"53412479","parentId":"51107265","#text":"\u0428\u043a\u043e\u043b\u044c\u043d\u044b\u0435 \u043f\u0440\u0438\u043d\u0430\u0434\u043b\u0435\u0436\u043d\u043e\u0441\u0442\u0438 \u0438 \u0442\u0432\u043e\u0440\u0447\u0435\u0441\u0442\u0432\u043e"}
{"id":"53762129","parentId":"50802194","#text":"\u041f\u0440\u0438\u0431\u043e\u0440\u044b \u0434\u043b\u044f \u043c\u0430\u043d\u0438\u043a\u044e\u0440\u0430 \u0438 \u043f\u0435\u0434\u0438\u043a\u044e\u0440\u0430"}
{"id":"53769103","parentId":"50801025","#text":"\u0414\u043e\u043f\u043e\u043b\u043d\u0438\u0442\u0435\u043b\u044c\u043d\u044b\u0435 \u044d\u043b\u0435\u043a\u0442\u0440\u043e\u043f\u0440\u0438\u0431\u043e\u0440\u044b \u0432 \u0430\u0432\u0442\u043e"}
{"id":"54019217","parentId":"50353217","#text":"\u0427\u0430\u0441\u044b"}
{"id":"56572483","parentId":"51795218","#text":"\u041f\u0435\u0440\u0441\u043e\u043d\u0430\u043b\u044c\u043d\u044b\u0435 \u0430\u043a\u0441\u0435\u0441\u0441\u0443\u0430\u0440\u044b"}
{"id":"59301299","parentId":"53766070","#text":"\u0422\u043e\u0432\u0430\u0440\u044b \u0434\u043b\u044f \u0433\u0435\u0439\u043c\u0435\u0440\u043e\u0432"}
{"id":"60940705","parentId":"51108521","#text":"\u0418\u043d\u0432\u0435\u043d\u0442\u0430\u0440\u044c \u0434\u043b\u044f \u0434\u043e\u043c\u0430 \u0438 \u043e\u0444\u0438\u0441\u0430"}
{"id":"66360645","parentId":"66360639","#text":"\u041d\u0430\u043f\u043e\u043b\u043d\u0435\u043d\u0438\u0435 \u0438 \u0444\u0443\u0440\u043d\u0438\u0442\u0443\u0440\u0430 \u0434\u043b\u044f \u043a\u0443\u0445\u043e\u043d\u044c"}
{"id":"71606688","parentId":"51213343","#text":"\u0414\u0430\u0439\u0432\u0438\u043d\u0433"}
{"id":"76993147","parentId":"50268684","#text":"\u0414\u0435\u043f\u0438\u043b\u044f\u0446\u0438\u044f \u0438 \u0448\u0443\u0433\u0430\u0440\u0438\u043d\u0433"}
{"id":"82426983","parentId":"82426979","#text":"iPhone"}
{"id":"92024309","parentId":"53793462","#text":"\u0413\u0430\u0435\u0447\u043d\u044b\u0435 \u043a\u043b\u044e\u0447\u0438"}
{"id":"92024434","parentId":"92024432","#text":"\u0410\u0432\u0442\u043e\u043a\u043e\u0441\u043c\u0435\u0442\u0438\u043a\u0430"}
{"id":"92024618","parentId":"51103705","#text":"\u0410\u043a\u0441\u0435\u0441\u0441\u0443\u0430\u0440\u044b \u0434\u043b\u044f \u0442\u0435\u043b\u0435\u0432\u0438\u0437\u043e\u0440\u043e\u0432"}
{"id":"50268684","#text":"\u041a\u0440\u0430\u0441\u043e\u0442\u0430 \u0438 \u0437\u0434\u043e\u0440\u043e\u0432\u044c\u0435"}
{"id":"50447427","parentId":"50353217","#text":"\u041f\u043e\u0441\u0443\u0434\u0430"}
{"id":"50800137","parentId":"50445614","#text":"\u041e\u0441\u0432\u0435\u0449\u0435\u043d\u0438\u0435 \u0438\u043d\u0442\u0435\u0440\u044c\u0435\u0440\u0430"}
{"id":"50801025","parentId":"50801024","#text":"\u0410\u0432\u0442\u043e\u044d\u043b\u0435\u043a\u0442\u0440\u043e\u043d\u0438\u043a\u0430"}
{"id":"50801821","parentId":"50447638","#text":"\u0414\u043b\u044f \u0441\u0430\u043c\u044b\u0445 \u043c\u0430\u043b\u0435\u043d\u044c\u043a\u0438\u0445"}
{"id":"50802194","parentId":"50445617","#text":"\u041a\u0440\u0430\u0441\u043e\u0442\u0430, \u0437\u0434\u043e\u0440\u043e\u0432\u044c\u0435, \u0443\u0445\u043e\u0434"}
{"id":"50827073","parentId":"50827064","#text":"\u0421\u0443\u043c\u043a\u0438 \u0438 \u0430\u043a\u0441\u0435\u0441\u0441\u0443\u0430\u0440\u044b"}
{"id":"50842296","parentId":"50842295","#text":"\u0410\u043a\u0442\u0438\u0432\u043d\u044b\u0439 \u043e\u0442\u0434\u044b\u0445, \u0442\u0443\u0440\u0438\u0437\u043c \u0438 \u0445\u043e\u0431\u0431\u0438"}
{"id":"50845420","parentId":"50845418","#text":"\u0422\u0432\u043e\u0440\u0447\u0435\u0441\u0442\u0432\u043e"}
{"id":"51106253","parentId":"51103705","#text":"\u041c\u0443\u0437\u044b\u043a\u0430\u043b\u044c\u043d\u044b\u0435 \u0438\u043d\u0441\u0442\u0440\u0443\u043c\u0435\u043d\u0442\u044b \u0438 \u043e\u0431\u043e\u0440\u0443\u0434\u043e\u0432\u0430\u043d\u0438\u0435"}
{"id":"51107265","parentId":"51107264","#text":"\u041a\u0430\u043d\u0446\u0442\u043e\u0432\u0430\u0440\u044b"}
{"id":"51108521","parentId":"50353217","#text":"\u0425\u043e\u0437\u044f\u0439\u0441\u0442\u0432\u0435\u043d\u043d\u044b\u0439 \u0438\u043d\u0432\u0435\u043d\u0442\u0430\u0440\u044c"}
{"id":"51209838","parentId":"51209786","#text":"\u041e\u0434\u0435\u0436\u0434\u0430 \u0434\u043b\u044f \u0436\u0435\u043d\u0449\u0438\u043d"}
{"id":"51213343","parentId":"50842295","#text":"\u0421\u043f\u043e\u0440\u0442\u0438\u0432\u043d\u044b\u0435 \u0442\u043e\u0432\u0430\u0440\u044b"}
{"id":"51245298","parentId":"51103701","#text":"\u0422\u0435\u043b\u0435\u0444\u043e\u043d\u044b, MP3, GPS "}
{"id":"51297056","parentId":"50445614","#text":"\u041a\u043b\u0438\u043c\u0430\u0442\u0438\u0447\u0435\u0441\u043a\u0430\u044f \u0442\u0435\u0445\u043d\u0438\u043a\u0430"}
{"id":"51347659","#text":"\u0414\u0430\u0447\u0430, \u0441\u0430\u0434, \u043e\u0433\u043e\u0440\u043e\u0434 "}
{"id":"51795218","parentId":"51104893","#text":"\u0421\u0443\u0432\u0435\u043d\u0438\u0440\u043d\u0430\u044f \u043f\u0440\u043e\u0434\u0443\u043a\u0446\u0438\u044f"}
{"id":"51946999","parentId":"50447638","#text":"\u041f\u0440\u043e\u0433\u0443\u043b\u043a\u0438 \u0438 \u0430\u043a\u0442\u0438\u0432\u043d\u044b\u0439 \u043e\u0442\u0434\u044b\u0445"}
{"id":"52179668","parentId":"50353217","#text":"\u0411\u044b\u0442\u043e\u0432\u0430\u044f \u0445\u0438\u043c\u0438\u044f"}
{"id":"52506908","parentId":"52175559","#text":"\u0421\u0430\u043d\u0442\u0435\u0445\u043d\u0438\u043a\u0430 \u0438 \u043c\u0435\u0431\u0435\u043b\u044c \u0434\u043b\u044f \u0432\u0430\u043d\u043d\u043e\u0439"}
{"id":"52770184","parentId":"52406774","#text":"\u0421\u0438\u0441\u0442\u0435\u043c\u044b \u043e\u0445\u0440\u0430\u043d\u044b \u0438 \u0431\u0435\u0437\u043e\u043f\u0430\u0441\u043d\u043e\u0441\u0442\u0438"}
{"id":"53766070","parentId":"51108851","#text":"\u041a\u043e\u043c\u043f\u044c\u044e\u0442\u0435\u0440\u043d\u044b\u0435 \u043a\u043e\u043c\u043f\u043b\u0435\u043a\u0442\u0443\u044e\u0449\u0438\u0435"}
{"id":"53793462","parentId":"52147642","#text":"\u0420\u0443\u0447\u043d\u043e\u0439 \u0438\u043d\u0441\u0442\u0440\u0443\u043c\u0435\u043d\u0442"}
{"id":"66360639","parentId":"66360636","#text":"\u041c\u0435\u0431\u0435\u043b\u044c\u043d\u0430\u044f \u0444\u0443\u0440\u043d\u0438\u0442\u0443\u0440\u0430"}
{"id":"82426979","#text":"Apple"}
{"id":"92024432","parentId":"50801024","#text":"\u0410\u0432\u0442\u043e\u0445\u0438\u043c\u0438\u044f \u0438 \u043c\u0430\u0441\u043b\u0430"}
{"id":"50445617","parentId":"50445614","#text":"\u041c\u0435\u043b\u043a\u0430\u044f \u0431\u044b\u0442\u043e\u0432\u0430\u044f \u0442\u0435\u0445\u043d\u0438\u043a\u0430"}
{"id":"50801024","parentId":"50801023","#text":"\u0410\u0432\u0442\u043e\u0442\u043e\u0432\u0430\u0440\u044b"}
{"id":"50842295","#text":"\u0421\u043f\u043e\u0440\u0442 \u0438 \u0443\u0432\u043b\u0435\u0447\u0435\u043d\u0438\u044f"}
{"id":"50845418","parentId":"50447639","#text":"\u0420\u0430\u0437\u0432\u0438\u0442\u0438\u0435 \u0438 \u0442\u0432\u043e\u0440\u0447\u0435\u0441\u0442\u0432\u043e"}
{"id":"51103705","parentId":"51103701","#text":"\u0422\u0412, \u0410\u0443\u0434\u0438\u043e\/\u0412\u0438\u0434\u0435\u043e, \u0424\u043e\u0442\u043e"}
{"id":"51104893","#text":"\u041f\u043e\u0434\u0430\u0440\u043a\u0438 \u0438 \u0442\u043e\u0432\u0430\u0440\u044b \u0434\u043b\u044f \u043f\u0440\u0430\u0437\u0434\u043d\u0438\u043a\u043e\u0432"}
{"id":"51107264","#text":"\u041e\u0444\u0438\u0441, \u0448\u043a\u043e\u043b\u0430, \u043a\u043d\u0438\u0433\u0438"}
{"id":"51108851","#text":"\u041a\u043e\u043c\u043f\u044c\u044e\u0442\u0435\u0440\u044b \u0438 \u043d\u043e\u0443\u0442\u0431\u0443\u043a\u0438"}
{"id":"51209786","parentId":"50827064","#text":"\u041e\u0434\u0435\u0436\u0434\u0430"}
{"id":"52147642","parentId":"50801021","#text":"\u0418\u043d\u0441\u0442\u0440\u0443\u043c\u0435\u043d\u0442\u044b \u0438 \u043e\u0431\u043e\u0440\u0443\u0434\u043e\u0432\u0430\u043d\u0438\u0435"}
{"id":"52175559","#text":"\u0421\u0430\u043d\u0442\u0435\u0445\u043d\u0438\u043a\u0430 \u0438 \u0440\u0435\u043c\u043e\u043d\u0442"}
{"id":"52406774","#text":"\u0422\u043e\u0432\u0430\u0440\u044b \u0434\u043b\u044f \u0431\u0438\u0437\u043d\u0435\u0441\u0430"}
{"id":"66360636","parentId":"50353217","#text":"\u041c\u0435\u0431\u0435\u043b\u044c"}
{"id":"50353217","#text":"\u0422\u043e\u0432\u0430\u0440\u044b \u0434\u043b\u044f \u0434\u043e\u043c\u0430"}
{"id":"50445614","#text":"\u0411\u044b\u0442\u043e\u0432\u0430\u044f \u0442\u0435\u0445\u043d\u0438\u043a\u0430, \u0438\u043d\u0442\u0435\u0440\u044c\u0435\u0440"}
{"id":"50447639","parentId":"50447638","#text":"\u0414\u0435\u0442\u0441\u043a\u0438\u0435 \u0438\u0433\u0440\u0443\u0448\u043a\u0438"}
{"id":"50801023","parentId":"50801021","#text":"\u0410\u0432\u0442\u043e \u0438 \u043c\u043e\u0442\u043e"}
{"id":"50827064","#text":"\u041e\u0434\u0435\u0436\u0434\u0430, \u043e\u0431\u0443\u0432\u044c \u0438 \u0430\u043a\u0441\u0435\u0441\u0441\u0443\u0430\u0440\u044b"}
{"id":"51103701","#text":"\u0421\u043c\u0430\u0440\u0442\u0444\u043e\u043d\u044b, \u0422\u0412 \u0438 \u044d\u043b\u0435\u043a\u0442\u0440\u043e\u043d\u0438\u043a\u0430"}
{"id":"50447638","#text":"\u0422\u043e\u0432\u0430\u0440\u044b \u0434\u043b\u044f \u0434\u0435\u0442\u0435\u0439"}
{"id":"50801021","#text":"\u0418\u043d\u0441\u0442\u0440\u0443\u043c\u0435\u043d\u0442\u044b \u0438 \u0430\u0432\u0442\u043e\u0442\u043e\u0432\u0430\u0440\u044b"}
